CCS PCH C Compiler, Version 4.104, 5967               22-janv.-19 18:35

               Filename: \\merlin\etudiants\franchoism\Documents\aarchi\gg.lst

               ROM used: 262 bytes (1%)
                         Largest free fragment is 32506
               RAM used: 6 (0%) at main() level
                         6 (0%) worst case
               Stack:    1 locations

*
0000:  GOTO   002A
.................... #include "\\merlin\etudiants\franchoism\Documents\aarchi\gg.h" 
.................... #include <18F452.h> 
.................... //////// Standard Header file for the PIC18F452 device //////////////// 
.................... #device PIC18F452 
.................... #list 
....................  
.................... #device adc=8 
....................  
.................... #FUSES NOWDT                 	//No Watch Dog Timer 
.................... #FUSES WDT128                	//Watch Dog Timer uses 1:128 Postscale 
.................... #FUSES HS                    	//High speed Osc (> 4mhz for PCM/PCH) (>10mhz for PCD) 
.................... #FUSES NOPROTECT             	//Code not protected from reading 
.................... #FUSES NOOSCSEN              	//Oscillator switching is disabled, main oscillator is source 
.................... #FUSES NOBROWNOUT            	//No brownout reset 
.................... #FUSES BORV20                	//Brownout reset at 2.0V 
.................... #FUSES NOPUT                 	//No Power Up Timer 
.................... #FUSES STVREN                	//Stack full/underflow will cause reset 
.................... #FUSES NODEBUG               	//No Debug mode for ICD 
.................... #FUSES NOLVP                 	//No low voltage prgming, B3(PIC16) or B5(PIC18) used for I/O 
.................... #FUSES NOWRT                 	//Program memory not write protected 
.................... #FUSES NOWRTD                	//Data EEPROM not write protected 
.................... #FUSES NOWRTB                	//Boot block not write protected 
.................... #FUSES NOWRTC                	//configuration not registers write protected 
.................... #FUSES NOCPD                 	//No EE protection 
.................... #FUSES NOCPB                 	//No Boot Block code protection 
.................... #FUSES NOEBTR                	//Memory not protected from table reads 
.................... #FUSES NOEBTRB               	//Boot block not protected from table reads 
....................  
.................... #use delay(clock=20000000) 
0004:  CLRF   FEA
0006:  MOVLW  06
0008:  MOVWF  FE9
000A:  MOVF   FEF,W
000C:  BZ    0028
000E:  MOVLW  06
0010:  MOVWF  01
0012:  CLRF   00
0014:  DECFSZ 00,F
0016:  BRA    0014
0018:  DECFSZ 01,F
001A:  BRA    0012
001C:  MOVLW  7B
001E:  MOVWF  00
0020:  DECFSZ 00,F
0022:  BRA    0020
0024:  DECFSZ FEF,F
0026:  BRA    000E
0028:  RETLW  00
.................... #use rs232(baud=9600,parity=N,xmit=PIN_C6,rcv=PIN_C7,bits=8) 
....................  
....................  
....................  
.................... #define d1 input (pin_b5) 
.................... #define d2 input (pin_b6) 
....................     
.................... void main() 
.................... { 
002A:  CLRF   FF8
002C:  BCF    FD0.7
002E:  CLRF   FEA
0030:  CLRF   FE9
0032:  MOVLW  81
0034:  MOVWF  FAF
0036:  MOVLW  A6
0038:  MOVWF  FAC
003A:  MOVLW  90
003C:  MOVWF  FAB
003E:  BSF    FC1.0
0040:  BSF    FC1.1
0042:  BSF    FC1.2
0044:  BCF    FC1.3
....................  
....................    setup_adc_ports(NO_ANALOGS); 
0046:  BSF    FC1.0
0048:  BSF    FC1.1
004A:  BSF    FC1.2
004C:  BCF    FC1.3
....................    setup_adc(ADC_CLOCK_DIV_2); 
004E:  BCF    FC1.6
0050:  BCF    FC2.6
0052:  BCF    FC2.7
0054:  BCF    FC1.7
0056:  BSF    FC2.0
....................    setup_psp(PSP_DISABLED); 
0058:  BCF    F96.4
....................    setup_spi(SPI_SS_DISABLED); 
005A:  BCF    FC6.5
005C:  BCF    F94.5
005E:  BSF    F94.4
0060:  BCF    F94.3
0062:  MOVLW  01
0064:  MOVWF  FC6
0066:  MOVLW  00
0068:  MOVWF  FC7
....................    setup_wdt(WDT_OFF); 
006A:  BCF    FD1.0
....................    setup_timer_0(RTCC_INTERNAL); 
006C:  MOVLW  80
006E:  MOVWF  FD5
....................    setup_timer_1(T1_DISABLED); 
0070:  CLRF   FCD
....................    setup_timer_2(T2_DISABLED,0,1); 
0072:  MOVLW  00
0074:  MOVWF  FCA
0076:  MOVLW  00
0078:  MOVWF  FCB
.................... //Setup_Oscillator parameter not selected from Intr Oscillator Config tab 
....................  
....................    // TODO: USER CODE!! 
....................       
....................       while(TRUE){  
....................       OUTPUT_D(0B00100001); 
007A:  CLRF   F95
007C:  MOVLW  21
007E:  MOVWF  F8C
....................        if(d1==1 || d2==1){ 
0080:  BSF    F93.5
0082:  BTFSC  F81.5
0084:  BRA    008C
0086:  BSF    F93.6
0088:  BTFSS  F81.6
008A:  BRA    0102
....................             OUTPUT_D(0B00100001); 
008C:  CLRF   F95
008E:  MOVLW  21
0090:  MOVWF  F8C
....................             delay_ms(3000); 
0092:  MOVLW  0C
0094:  MOVWF  05
0096:  MOVLW  FA
0098:  MOVWF  06
009A:  RCALL  0004
009C:  DECFSZ 05,F
009E:  BRA    0096
....................             OUTPUT_D(0B00010001); 
00A0:  CLRF   F95
00A2:  MOVLW  11
00A4:  MOVWF  F8C
....................             delay_ms(3000); 
00A6:  MOVLW  0C
00A8:  MOVWF  05
00AA:  MOVLW  FA
00AC:  MOVWF  06
00AE:  RCALL  0004
00B0:  DECFSZ 05,F
00B2:  BRA    00AA
....................             OUTPUT_D(0B00001001); 
00B4:  CLRF   F95
00B6:  MOVLW  09
00B8:  MOVWF  F8C
....................             delay_ms(3000); 
00BA:  MOVLW  0C
00BC:  MOVWF  05
00BE:  MOVLW  FA
00C0:  MOVWF  06
00C2:  RCALL  0004
00C4:  DECFSZ 05,F
00C6:  BRA    00BE
....................             OUTPUT_D(0B00001100); 
00C8:  CLRF   F95
00CA:  MOVLW  0C
00CC:  MOVWF  F8C
....................             delay_ms(3000); 
00CE:  MOVWF  05
00D0:  MOVLW  FA
00D2:  MOVWF  06
00D4:  RCALL  0004
00D6:  DECFSZ 05,F
00D8:  BRA    00D0
....................             OUTPUT_D(0B00001010); 
00DA:  CLRF   F95
00DC:  MOVLW  0A
00DE:  MOVWF  F8C
....................             delay_ms(3000); 
00E0:  MOVLW  0C
00E2:  MOVWF  05
00E4:  MOVLW  FA
00E6:  MOVWF  06
00E8:  RCALL  0004
00EA:  DECFSZ 05,F
00EC:  BRA    00E4
....................             OUTPUT_D(0B00100001); 
00EE:  CLRF   F95
00F0:  MOVLW  21
00F2:  MOVWF  F8C
....................             delay_ms(3000); 
00F4:  MOVLW  0C
00F6:  MOVWF  05
00F8:  MOVLW  FA
00FA:  MOVWF  06
00FC:  RCALL  0004
00FE:  DECFSZ 05,F
0100:  BRA    00F8
....................         
....................       } 
....................  
.................... } 
0102:  BRA    007A
.................... } 
0104:  SLEEP 

Configuration Fuses:
   Word  1: 2200   HS NOOSCSEN
   Word  2: 0E0D   NOBROWNOUT WDT128 NOWDT BORV20 NOPUT
   Word  3: 0100   CCP2C1
   Word  4: 0081   STVREN NODEBUG NOLVP
   Word  5: C00F   NOPROTECT NOCPD NOCPB
   Word  6: E00F   NOWRT NOWRTD NOWRTB NOWRTC
   Word  7: 400F   NOEBTR NOEBTRB
